{
   "users" : [
      {
         "id" : 0,
         "first_name" : "Jesus",
         "last_name": "Vasquez",
         "title" : "Cyber Tool Developer",
         "company" : "Alion Science",
         "languages" : [
            "Java",
            "Python"
         ],
         "frameworks" : [
            "Django",
            "React"
         ]
      },
      {
         "id": 1,
         "first_name" : "Kevin",
         "last_name": "Estrada",
         "title" : "Associate Consultant",
         "company" : "CapGemini"
      }
   ]
 }